divide_tb.vcd
$date
	Thu Feb  5 11:13:52 2026
$end
$version
	Icarus Verilog
$end
$timescale
	1s
$end
$scope module divide_tb $end
$var wire 16 ! tb_remainder [15:0] $end
$var wire 16 " tb_quotient [15:0] $end
$var wire 1 # done $end
$var reg 1 $ tb_clk $end
$var reg 16 % tb_dividend [15:0] $end
$var reg 16 & tb_divisor [15:0] $end
$var reg 1 ' tb_rst $end
$var reg 1 ( tb_start $end
$scope module u_divide $end
$var wire 1 $ clk $end
$var wire 16 ) dividend [15:0] $end
$var wire 16 * divisor [15:0] $end
$var wire 1 ' rst $end
$var wire 1 ( start $end
$var wire 4 + shift_amt [3:0] $end
$var wire 4 , msb_pos [3:0] $end
$var parameter 3 - ALIGN $end
$var parameter 3 . DECIDE $end
$var parameter 3 / DONE $end
$var parameter 3 0 IDLE $end
$var parameter 3 1 INIT $end
$var parameter 3 2 SHIFT $end
$var parameter 3 3 SUB $end
$var parameter 32 4 WIDTH $end
$var reg 16 5 A [15:0] $end
$var reg 16 6 B [15:0] $end
$var reg 16 7 SHIFT_B [15:0] $end
$var reg 1 8 borrow $end
$var reg 4 9 cnt [3:0] $end
$var reg 1 : dividend_sign $end
$var reg 1 ; divisor_sign $end
$var reg 1 # done $end
$var reg 3 < next_state [2:0] $end
$var reg 16 = quotient [15:0] $end
$var reg 16 > remainder [15:0] $end
$var reg 3 ? state [2:0] $end
$var reg 16 @ sub_out [15:0] $end
$scope module priority_encoder $end
$var wire 16 A in [15:0] $end
$var reg 4 B out [3:0] $end
$var reg 1 C valid $end
$upscope $end
$upscope $end
$upscope $end
$enddefinitions $end
$comment Show the parameter values. $end
$dumpall
b10000 4
b11 3
b101 2
b1 1
b0 0
b110 /
b100 .
b10 -
$end
#0
$dumpvars
xC
bx B
bx A
bx @
b0 ?
bx >
bx =
b0 <
x;
x:
bx 9
x8
bx 7
bx 6
bx 5
bx ,
bx +
b0 *
b0 )
0(
1'
b0 &
b0 %
0$
x#
bx "
bx !
$end
#5
1$
#10
0$
#15
1$
0'
#20
0$
#25
b1 ?
b10 <
1$
1(
b10 &
b10 *
b1010 %
b1010 )
#30
0$
#35
b1110 +
b1 ,
b1 B
1C
0#
b0 "
b0 =
b10 6
b10 A
0;
b1010 5
0:
b10 ?
b11 <
1$
0(
#40
0$
#45
b100 <
b1110 9
b1000000000000000 7
b11 ?
1$
#50
0$
#55
b101 <
18
b1000000000001010 @
b100 ?
1$
#60
0$
#65
b11 <
b101 ?
1$
#70
0$
#75
b100 <
b1101 9
b100000000000000 7
b11 ?
1$
#80
0$
#85
b101 <
b1100000000001010 @
b100 ?
1$
#90
0$
#95
b11 <
b101 ?
1$
#100
0$
#105
b100 <
b1100 9
b10000000000000 7
b11 ?
1$
#110
0$
#115
b101 <
b1110000000001010 @
b100 ?
1$
#120
0$
#125
b11 <
b101 ?
1$
#130
0$
#135
b100 <
b1011 9
b1000000000000 7
b11 ?
1$
#140
0$
#145
b101 <
b1111000000001010 @
b100 ?
1$
#150
0$
#155
b11 <
b101 ?
1$
#160
0$
#165
b100 <
b1010 9
b100000000000 7
b11 ?
1$
#170
0$
#175
b101 <
b1111100000001010 @
b100 ?
1$
#180
0$
#185
b11 <
b101 ?
1$
#190
0$
#195
b100 <
b1001 9
b10000000000 7
b11 ?
1$
#200
0$
#205
b101 <
b1111110000001010 @
b100 ?
1$
#210
0$
#215
b11 <
b101 ?
1$
#220
0$
#225
b100 <
b1000 9
b1000000000 7
b11 ?
1$
#230
0$
#235
b101 <
b1111111000001010 @
b100 ?
1$
#240
0$
#245
b11 <
b101 ?
1$
#250
0$
#255
b100 <
b111 9
b100000000 7
b11 ?
1$
#260
0$
#265
b101 <
b1111111100001010 @
b100 ?
1$
#270
0$
#275
b11 <
b101 ?
1$
#280
0$
#285
b100 <
b110 9
b10000000 7
b11 ?
1$
#290
0$
#295
b101 <
b1111111110001010 @
b100 ?
1$
#300
0$
#305
b11 <
b101 ?
1$
#310
0$
#315
b100 <
b101 9
b1000000 7
b11 ?
1$
#320
0$
#325
b101 <
b1111111111001010 @
b100 ?
1$
#330
0$
#335
b11 <
b101 ?
1$
#340
0$
#345
b100 <
b100 9
b100000 7
b11 ?
1$
#350
0$
#355
b101 <
b1111111111101010 @
b100 ?
1$
#360
0$
#365
b11 <
b101 ?
1$
#370
0$
#375
b100 <
b11 9
b10000 7
b11 ?
1$
#380
0$
#385
b101 <
b1111111111111010 @
b100 ?
1$
#390
0$
#395
b11 <
b101 ?
1$
#400
0$
#405
b100 <
b10 9
b1000 7
b11 ?
1$
#410
0$
#415
b101 <
08
b10 @
b100 ?
1$
#420
0$
#425
b11 <
b100 "
b100 =
b10 5
b101 ?
1$
#430
0$
#435
b100 <
b1 9
b100 7
b11 ?
1$
#440
0$
#445
18
b1111111111111110 @
b100 ?
b101 <
1$
1(
b11 &
b11 *
b1111111111110001 %
b1111111111110001 )
#450
0$
#455
b101 ?
b11 <
1$
0(
#460
0$
#465
b100 <
b0 9
b10 7
b11 ?
1$
#470
0$
#475
b101 <
08
b0 @
b100 ?
1$
#480
0$
#485
b110 <
b101 "
b101 =
b0 5
b101 ?
1$
#490
0$
#495
b0 <
b1111 9
b1 7
b110 ?
1$
#500
0$
#505
1#
b0 !
b0 >
b0 ?
1$
